[
  {
    "plans": ["General", "Zone"],
    "type": "Breakfast",
    "meals": [
      {
        "measure": {
          "uri": "http://www.edamam.com/ontologies/edamam.owl#Measure_ounce",
          "label": "Ounce"
        },
        "eatenBy": [
          "60ef25faf2231c6d6ef63274"
        ],
        "_id": "60ef266ff2231c6d6ef63414",
        "eatenDate": "2021-07-14T04:00:00.000Z",
        "foodId": "food_bnxz3d0btqu6ffailr6mebo354hy",
        "label": "Smoothie",
        "eatenAmount": 4,
        "type": "BREAKFAST",
        "created": "2021-07-14T18:01:19.691Z",
        "lastUpdated": "2021-07-14T18:01:19.691Z",
        "__v": 0,
        "id": "60ef266ff2231c6d6ef63414"
      },
      {
        "measure": {
          "uri": "http://www.edamam.com/ontologies/edamam.owl#Measure_ounce",
          "label": "Ounce"
        },
        "eatenBy": [
          "60ef25faf2231c6d6ef63274"
        ],
        "_id": "60ef2708f2231c6d6ef64807",
        "eatenDate": "2021-07-14T04:00:00.000Z",
        "foodId": "food_bjsfxtcaidvmhaa3afrbna43q3hu",
        "label": "Banana",
        "eatenAmount": 2,
        "type": "BREAKFAST",
        "created": "2021-07-14T18:03:52.145Z",
        "lastUpdated": "2021-07-14T18:03:52.145Z",
        "__v": 0,
        "id": "60ef2708f2231c6d6ef64807"
      },
      {
        "measure": {
          "uri": "http://www.edamam.com/ontologies/edamam.owl#Measure_gram",
          "label": "Gram"
        },
        "eatenBy": [
          "60ef25faf2231c6d6ef63274"
        ],
        "_id": "60ef2730f2231c6d6ef64ae8",
        "eatenDate": "2021-07-14T04:00:00.000Z",
        "foodId": "food_ae9575obgo01yta6szkvqab50hhl",
        "label": "Almond Butter",
        "eatenAmount": 40,
        "type": "BREAKFAST",
        "created": "2021-07-14T18:04:32.114Z",
        "lastUpdated": "2021-07-14T18:04:32.114Z",
        "__v": 0,
        "id": "60ef2730f2231c6d6ef64ae8"
      },
      {
        "measure": {
          "uri": "http://www.edamam.com/ontologies/edamam.owl#Measure_gram",
          "label": "Gram"
        },
        "eatenBy": [
          "60ef25faf2231c6d6ef63274"
        ],
        "_id": "60ef2754f2231c6d6ef64de2",
        "eatenDate": "2021-07-14T04:00:00.000Z",
        "foodId": "food_bgkl0cuasoeomtbolalmcauhha54",
        "label": "Berries",
        "eatenAmount": 75,
        "type": "BREAKFAST",
        "created": "2021-07-14T18:05:08.183Z",
        "lastUpdated": "2021-07-14T18:05:08.183Z",
        "__v": 0,
        "id": "60ef2754f2231c6d6ef64de2"
      }
    ]
  },
  {
    "plans": ["General", "Zone"],
    "type": "Snack",
    "meals": [
      {
        "measure": {
          "uri": "http://www.edamam.com/ontologies/edamam.owl#Measure_slice",
          "label": "Slice"
        },
        "eatenBy": [
          "60ef25faf2231c6d6ef63274"
        ],
        "_id": "60ef2786f2231c6d6ef64ffd",
        "eatenDate": "2021-07-14T04:00:00.000Z",
        "foodId": "food_av0awb0bgs18qub01sd9kbx44b61",
        "label": "Bacon",
        "eatenAmount": 1,
        "type": "Snack",
        "created": "2021-07-14T18:05:58.354Z",
        "lastUpdated": "2021-07-14T18:05:58.354Z",
        "__v": 0,
        "id": "60ef2786f2231c6d6ef64ffd"
      }
    ]
  },
  {
    "plans": ["General", "Zone"],
    "type": "Lunch",
    "meals": [
      {
        "measure": {
          "uri": "http://www.edamam.com/ontologies/edamam.owl#Measure_ounce",
          "label": "Ounce"
        },
        "eatenBy": [
          "60ef25faf2231c6d6ef63274"
        ],
        "_id": "60ef280cf2231c6d6ef65914",
        "eatenDate": "2021-07-14T04:00:00.000Z",
        "foodId": "food_bmyxrshbfao9s1amjrvhoauob6mo",
        "label": "Chicken",
        "eatenAmount": 6,
        "type": "LUNCH",
        "created": "2021-07-14T18:08:12.826Z",
        "lastUpdated": "2021-07-14T18:08:12.826Z",
        "__v": 0,
        "id": "60ef280cf2231c6d6ef65914"
      },
      {
        "measure": {
          "uri": "http://www.edamam.com/ontologies/edamam.owl#Measure_cup",
          "label": "Cup"
        },
        "eatenBy": [
          "60ef25faf2231c6d6ef63274"
        ],
        "_id": "60ef2831f2231c6d6ef65ba0",
        "eatenDate": "2021-07-14T04:00:00.000Z",
        "foodId": "food_a0d1h1cbporq98adlzq8tadghm2a",
        "label": "Quinoa",
        "eatenAmount": 1,
        "type": "LUNCH",
        "created": "2021-07-14T18:08:49.769Z",
        "lastUpdated": "2021-07-14T18:08:49.769Z",
        "__v": 0,
        "id": "60ef2831f2231c6d6ef65ba0"
      },
      {
        "measure": {
          "uri": "http://www.edamam.com/ontologies/edamam.owl#Measure_gram",
          "label": "Gram"
        },
        "eatenBy": [
          "60ef25faf2231c6d6ef63274"
        ],
        "_id": "60ef2881f2231c6d6ef65efb",
        "eatenDate": "2021-07-14T04:00:00.000Z",
        "foodId": "food_bihrphga1sxydgainq4emboh7nh7",
        "label": "Sauteed Veggies",
        "eatenAmount": 300,
        "type": "LUNCH",
        "created": "2021-07-14T18:10:09.065Z",
        "lastUpdated": "2021-07-14T18:10:09.065Z",
        "__v": 0,
        "id": "60ef2881f2231c6d6ef65efb"
      }
    ]
  },
  {
    "plans": ["General", "Zone"],
    "type": "Teatime",
    "meals": [
      {
        "measure": {
          "uri": "http://www.edamam.com/ontologies/edamam.owl#Measure_gram",
          "label": "Gram"
        },
        "eatenBy": [
          "60ef25faf2231c6d6ef63274"
        ],
        "_id": "60ef2919f2231c6d6ef662ce",
        "eatenDate": "2021-07-14T04:00:00.000Z",
        "foodId": "food_ae9575obgo01yta6szkvqab50hhl",
        "label": "Almond Butter",
        "eatenAmount": 40,
        "type": "Snack",
        "created": "2021-07-14T18:12:41.035Z",
        "lastUpdated": "2021-07-14T18:12:49.681Z",
        "__v": 0,
        "id": "60ef2919f2231c6d6ef662ce"
      },
      {
        "measure": {
          "uri": "http://www.edamam.com/ontologies/edamam.owl#Measure_scoop",
          "label": "Scoop"
        },
        "eatenBy": [
          "60ef25faf2231c6d6ef63274"
        ],
        "_id": "60ef2956f2231c6d6ef66849",
        "eatenDate": "2021-07-14T04:00:00.000Z",
        "foodId": "food_bakks6hadovz21bbgb85oa1iycf3",
        "label": "Protein Powder",
        "eatenAmount": 1,
        "type": "Snack",
        "created": "2021-07-14T18:13:42.494Z",
        "lastUpdated": "2021-07-14T18:13:42.494Z",
        "__v": 0,
        "id": "60ef2956f2231c6d6ef66849"
      },
      {
        "measure": {
          "uri": "http://www.edamam.com/ontologies/edamam.owl#Measure_ounce",
          "label": "Ounce"
        },
        "eatenBy": [
          "60ef25faf2231c6d6ef63274"
        ],
        "_id": "60ef2a18f2231c6d6ef67a95",
        "eatenDate": "2021-07-14T04:00:00.000Z",
        "foodId": "food_aa8o4pkbhgkey4btmg1daaclqmww",
        "label": "Almond Milk",
        "eatenAmount": 1,
        "type": "Snack",
        "created": "2021-07-14T18:16:56.476Z",
        "lastUpdated": "2021-07-14T18:16:56.476Z",
        "__v": 0,
        "id": "60ef2a18f2231c6d6ef67a95"
      }
    ]
  },
  {
    "plans": ["General", "Zone"],
    "type": "Dinner",
    "meals": [
      {
        "measure": {
          "uri": "http://www.edamam.com/ontologies/edamam.owl#Measure_gram",
          "label": "Gram"
        },
        "eatenBy": [
          "60ef25faf2231c6d6ef63274"
        ],
        "_id": "60ef2a6af2231c6d6ef6825e",
        "eatenDate": "2021-07-14T04:00:00.000Z",
        "foodId": "food_bmyxrshbfao9s1amjrvhoauob6mo",
        "label": "Chicken",
        "eatenAmount": 6,
        "type": "Dinner",
        "created": "2021-07-14T18:18:18.995Z",
        "lastUpdated": "2021-07-14T18:18:18.995Z",
        "__v": 0,
        "id": "60ef2a6af2231c6d6ef6825e"
      },
      {
        "measure": {
          "uri": "http://www.edamam.com/ontologies/edamam.owl#Measure_gram",
          "label": "Gram"
        },
        "eatenBy": [
          "60ef25faf2231c6d6ef63274"
        ],
        "_id": "60ef2ab2f2231c6d6ef68ef0",
        "eatenDate": "2021-07-14T04:00:00.000Z",
        "foodId": "food_a21rdluauyz8vxa7fjjo8akezpq0",
        "label": "Mashed Cauliflower",
        "eatenAmount": 300,
        "type": "Dinner",
        "created": "2021-07-14T18:19:30.874Z",
        "lastUpdated": "2021-07-14T18:19:30.874Z",
        "__v": 0,
        "id": "60ef2ab2f2231c6d6ef68ef0"
      },
      {
        "measure": {
          "uri": "http://www.edamam.com/ontologies/edamam.owl#Measure_gram",
          "label": "Gram"
        },
        "eatenBy": [
          "60ef25faf2231c6d6ef63274"
        ],
        "_id": "60ef2ac3f2231c6d6ef69119",
        "eatenDate": "2021-07-14T04:00:00.000Z",
        "foodId": "food_bihrphga1sxydgainq4emboh7nh7",
        "label": "Sauteed Veggies",
        "eatenAmount": 300,
        "type": "Dinner",
        "created": "2021-07-14T18:19:47.950Z",
        "lastUpdated": "2021-07-14T18:19:53.058Z",
        "__v": 0,
        "id": "60ef2ac3f2231c6d6ef69119"
      }
    ]
  },
  {
    "plans": ["General", "Zone"],
    "type": "Breakfast",
    "meals": [
      {
        "measure": {
          "uri": "http://www.edamam.com/ontologies/edamam.owl#Measure_ounce",
          "label": "Ounce"
        },
        "eatenBy": [
          "60ef25faf2231c6d6ef63274"
        ],
        "_id": "60fd56b059a31c00093c87c2",
        "eatenDate": "2021-07-02T00:00:00.000Z",
        "foodId": "food_bnxz3d0btqu6ffailr6mebo354hy",
        "label": "Smoothie",
        "eatenAmount": 4,
        "type": "Breakfast",
        "created": "2021-07-25T12:18:56.187Z",
        "lastUpdated": "2021-07-25T12:18:56.187Z",
        "__v": 0,
        "id": "60fd56b059a31c00093c87c2"
      },
      {
        "measure": {
          "uri": "http://www.edamam.com/ontologies/edamam.owl#Measure_ounce",
          "label": "Ounce"
        },
        "eatenBy": [
          "60ef25faf2231c6d6ef63274"
        ],
        "_id": "60fd56d259a31c00093c87c6",
        "eatenDate": "2021-07-02T00:00:00.000Z",
        "foodId": "food_bjsfxtcaidvmhaa3afrbna43q3hu",
        "label": "Banana",
        "eatenAmount": 2,
        "type": "Breakfast",
        "created": "2021-07-25T12:19:30.837Z",
        "lastUpdated": "2021-07-25T12:19:30.837Z",
        "__v": 0,
        "id": "60fd56d259a31c00093c87c6"
      },
      {
        "measure": {
          "uri": "http://www.edamam.com/ontologies/edamam.owl#Measure_gram",
          "label": "Gram"
        },
        "eatenBy": [
          "60ef25faf2231c6d6ef63274"
        ],
        "_id": "60fd56e559a31c00093c87ca",
        "eatenDate": "2021-07-02T00:00:00.000Z",
        "foodId": "food_ae9575obgo01yta6szkvqab50hhl",
        "label": "Almond Butter",
        "eatenAmount": 40,
        "type": "Breakfast",
        "created": "2021-07-25T12:19:49.999Z",
        "lastUpdated": "2021-07-25T12:19:49.999Z",
        "__v": 0,
        "id": "60fd56e559a31c00093c87ca"
      },
      {
        "measure": {
          "uri": "http://www.edamam.com/ontologies/edamam.owl#Measure_gram",
          "label": "Gram"
        },
        "eatenBy": [
          "60ef25faf2231c6d6ef63274"
        ],
        "_id": "60fd56f259a31c00093c87ce",
        "eatenDate": "2021-07-02T00:00:00.000Z",
        "foodId": "food_bgkl0cuasoeomtbolalmcauhha54",
        "label": "Berries",
        "eatenAmount": 75,
        "type": "Breakfast",
        "created": "2021-07-25T12:20:02.105Z",
        "lastUpdated": "2021-07-25T12:20:02.105Z",
        "__v": 0,
        "id": "60fd56f259a31c00093c87ce"
      }
    ]
  },
  {
    "plans": ["General", "Zone"],
    "type": "Lunch",
    "meals": [
      {
        "measure": {
          "uri": "http://www.edamam.com/ontologies/edamam.owl#Measure_cup",
          "label": "Cup"
        },
        "eatenBy": [
          "60ef25faf2231c6d6ef63274"
        ],
        "_id": "60fd570ef7c8a400081cb2ad",
        "eatenDate": "2021-07-02T00:00:00.000Z",
        "foodId": "food_a0d1h1cbporq98adlzq8tadghm2a",
        "label": "Quinoa",
        "eatenAmount": 1,
        "type": "Lunch",
        "created": "2021-07-25T12:20:30.418Z",
        "lastUpdated": "2021-07-25T12:20:30.418Z",
        "__v": 0,
        "id": "60fd570ef7c8a400081cb2ad"
      },
      {
        "measure": {
          "uri": "http://www.edamam.com/ontologies/edamam.owl#Measure_gram",
          "label": "Gram"
        },
        "eatenBy": [
          "60ef25faf2231c6d6ef63274"
        ],
        "_id": "60fd570edfcde40008ce1f6e",
        "eatenDate": "2021-07-02T00:00:00.000Z",
        "foodId": "food_b8n5jb1a81tpjobyyq3exakv1m0x",
        "label": "Steamed Broccoli",
        "eatenAmount": 325,
        "type": "Lunch",
        "created": "2021-07-25T12:20:30.423Z",
        "lastUpdated": "2021-07-25T12:20:30.423Z",
        "__v": 0,
        "id": "60fd570edfcde40008ce1f6e"
      },
      {
        "measure": {
          "uri": "http://www.edamam.com/ontologies/edamam.owl#Measure_ounce",
          "label": "Ounce"
        },
        "eatenBy": [
          "60ef25faf2231c6d6ef63274"
        ],
        "_id": "60fd570eac9a52000860b357",
        "eatenDate": "2021-07-02T00:00:00.000Z",
        "foodId": "food_bmyxrshbfao9s1amjrvhoauob6mo",
        "label": "Chicken",
        "eatenAmount": 6,
        "type": "Lunch",
        "created": "2021-07-25T12:20:30.424Z",
        "lastUpdated": "2021-07-25T12:20:30.424Z",
        "__v": 0,
        "id": "60fd570eac9a52000860b357"
      }
    ]
  },
  {
    "plans": ["General", "Zone"],
    "type": "Dinner",
    "meals": [
      {
        "measure": {
          "uri": "http://www.edamam.com/ontologies/edamam.owl#Measure_gram",
          "label": "Gram"
        },
        "eatenBy": [
          "60ef25faf2231c6d6ef63274"
        ],
        "_id": "60fd570e95d53b0008ea9737",
        "eatenDate": "2021-07-02T00:00:00.000Z",
        "foodId": "food_bihrphga1sxydgainq4emboh7nh7",
        "label": "Sauteed Veggies",
        "eatenAmount": 300,
        "type": "Dinner",
        "created": "2021-07-25T12:20:30.423Z",
        "lastUpdated": "2021-07-25T18:13:14.925Z",
        "__v": 0,
        "id": "60fd570e95d53b0008ea9737"
      },
      {
        "measure": {
          "uri": "http://www.edamam.com/ontologies/edamam.owl#Measure_ounce",
          "label": "Ounce"
        },
        "eatenBy": [
          "60ef25faf2231c6d6ef63274"
        ],
        "_id": "60fda77181eb1b0008536449",
        "eatenDate": "2021-07-02T00:00:00.000Z",
        "foodId": "food_bmyxrshbfao9s1amjrvhoauob6mo",
        "label": "Chicken",
        "eatenAmount": 6,
        "type": "Dinner",
        "created": "2021-07-25T18:03:29.795Z",
        "lastUpdated": "2021-07-25T18:03:29.795Z",
        "__v": 0,
        "id": "60fda77181eb1b0008536449"
      },
      {
        "measure": {
          "uri": "http://www.edamam.com/ontologies/edamam.owl#Measure_gram",
          "label": "Gram"
        },
        "eatenBy": [
          "60ef25faf2231c6d6ef63274"
        ],
        "_id": "60fda9de9434060008cde432",
        "eatenDate": "2021-07-02T00:00:00.000Z",
        "foodId": "food_buqfaxubzh6hi5asev8a5aj9sr71",
        "label": "Cauliflower",
        "eatenAmount": 325,
        "type": "Dinner",
        "created": "2021-07-25T18:13:50.618Z",
        "lastUpdated": "2021-07-25T18:13:50.618Z",
        "__v": 0,
        "id": "60fda9de9434060008cde432"
      }
    ]
  },
  {
    "plans": ["General", "Zone"],
    "type": "Snack",
    "meals": [
      {
        "measure": {
          "uri": "http://www.edamam.com/ontologies/edamam.owl#Measure_slice",
          "label": "Slice"
        },
        "eatenBy": [
          "60ef25faf2231c6d6ef63274"
        ],
        "_id": "60fd578873df04000871be8c",
        "eatenDate": "2021-07-02T00:00:00.000Z",
        "foodId": "food_bd61zi0babsq6yacfm6ztb0y8012",
        "label": "Canadian Bacon",
        "eatenAmount": 1,
        "type": "Snack",
        "created": "2021-07-25T12:22:32.999Z",
        "lastUpdated": "2021-07-25T12:22:32.999Z",
        "__v": 0,
        "id": "60fd578873df04000871be8c"
      },
      {
        "measure": {
          "uri": "http://www.edamam.com/ontologies/edamam.owl#Measure_unit",
          "label": "Whole"
        },
        "eatenBy": [
          "60ef25faf2231c6d6ef63274"
        ],
        "_id": "60fda695696980000803c686",
        "eatenDate": "2021-07-02T00:00:00.000Z",
        "foodId": "food_b8pgy4cbnid3sfawqjg92a63pq85",
        "label": "Peach",
        "eatenAmount": 1,
        "type": "Snack",
        "created": "2021-07-25T17:59:49.981Z",
        "lastUpdated": "2021-07-25T17:59:49.981Z",
        "__v": 0,
        "id": "60fda695696980000803c686"
      },
      {
        "measure": {
          "uri": "http://www.edamam.com/ontologies/edamam.owl#Measure_nut",
          "label": "Nut"
        },
        "eatenBy": [
          "60ef25faf2231c6d6ef63274"
        ],
        "_id": "60fda6ba43a4a300084c4ef8",
        "eatenDate": "2021-07-02T00:00:00.000Z",
        "foodId": "food_bq4d2wras281i0br37nrnaglo3yc",
        "label": "Almond",
        "eatenAmount": 6,
        "type": "Snack",
        "created": "2021-07-25T18:00:26.811Z",
        "lastUpdated": "2021-07-25T18:00:26.811Z",
        "__v": 0,
        "id": "60fda6ba43a4a300084c4ef8"
      }
    ]
  },
  {
    "plans": ["General", "Zone"],
    "type": "Teatime",
    "meals": [
      {
        "measure": {
          "uri": "http://www.edamam.com/ontologies/edamam.owl#Measure_unit",
          "label": "Whole"
        },
        "eatenBy": [
          "60ef25faf2231c6d6ef63274"
        ],
        "_id": "60fda6de1bb14800080a64b9",
        "eatenDate": "2021-07-02T00:00:00.000Z",
        "foodId": "food_a2y52zfbr22uq1ah5thnqac607ft",
        "label": "Hard Boiled Egg",
        "eatenAmount": 1,
        "type": "Teatime",
        "created": "2021-07-25T18:01:02.974Z",
        "lastUpdated": "2021-07-25T18:01:02.974Z",
        "__v": 0,
        "id": "60fda6de1bb14800080a64b9"
      },
      {
        "measure": {
          "uri": "http://www.edamam.com/ontologies/edamam.owl#Measure_unit",
          "label": "Whole"
        },
        "eatenBy": [
          "60ef25faf2231c6d6ef63274"
        ],
        "_id": "60fda6f9f164a6000878a869",
        "eatenDate": "2021-07-02T00:00:00.000Z",
        "foodId": "food_a7t4ob2aynrl25ayhq4n8adgykn5",
        "label": "Rice Cake",
        "eatenAmount": 1,
        "type": "Teatime",
        "created": "2021-07-25T18:01:29.755Z",
        "lastUpdated": "2021-07-25T18:01:29.755Z",
        "__v": 0,
        "id": "60fda6f9f164a6000878a869"
      },
      {
        "measure": {
          "uri": "http://www.edamam.com/ontologies/edamam.owl#Measure_gram",
          "label": "Gram"
        },
        "eatenBy": [
          "60ef25faf2231c6d6ef63274"
        ],
        "_id": "60fda71f1bb14800080a64f9",
        "eatenDate": "2021-07-02T00:00:00.000Z",
        "foodId": "food_ae9575obgo01yta6szkvqab50hhl",
        "label": "Almond Butter",
        "eatenAmount": 40,
        "type": "Teatime",
        "created": "2021-07-25T18:02:07.303Z",
        "lastUpdated": "2021-07-25T18:02:24.281Z",
        "__v": 0,
        "id": "60fda71f1bb14800080a64f9"
      }
    ]
  }
]