[{
  "type": "Diet",
  "web-label": "Balanced",
  "api-parameter": "balanced",
  "definition": "Protein/Fat/Carb values in 15/35/50 ratio"
},
{
  "type": "Diet",
  "web-label": "High-Fiber",
  "api-parameter": "high-fiber",
  "definition": "More than 5g fiber per serving",
  "label": "High Fiber"
},
{
  "type": "Diet",
  "web-label": "High-Protein",
  "api-parameter": "high-protein",
  "definition": "More than 50% of total calories from proteins",
  "label": "High Protein"
},
{
  "type": "Diet",
  "web-label": "Low-Carb",
  "api-parameter": "low-carb",
  "definition": "Less than 20% of total calories from carbs",
  "label": "Low Carbohydrate"
},
{
  "type": "Diet",
  "web-label": "Low-Fat",
  "api-parameter": "low-fat",
  "definition": "Less than 15% of total calories from fat",
  "label": "Low Fat"
},
{
  "type": "Diet",
  "web-label": "Low-Sodium",
  "api-parameter": "low-sodium",
  "definition": "Less than 140mg Na per serving",
  "label": "Low Sodium"
}]