[{
  "type": "Health",
  "web-label": "Alcohol-free",
  "api-parameter": "alcohol-free",
  "definition": "No alcohol used or contained"
},{
  "type": "Health",
  "web-label": "Immune-Supportive",
  "api-parameter": "immuno-supportive",
  "definition": "Recipes which fit a science-based approach to eating to strengthen the immune system"
},{
  "type": "Health",
  "web-label": "Celery-free",
  "api-parameter": "celery-free",
  "definition": "Does not contain celery or derivatives"
},{
  "type": "Health",
  "web-label": "Crustcean-free",
  "api-parameter": "crustcean-free",
  "definition": "Does not contain crustaceans (shrimp, lobster etc.) or derivatives"
},{
  "type": "Health",
  "web-label": "Dairy",
  "api-parameter": "dairy-free",
  "definition": "No dairy; no lactose"
},{
  "type": "Health",
  "web-label": "Eggs",
  "api-parameter": "egg-free",
  "definition": "No eggs or products containing eggs"
},{
  "type": "Health",
  "web-label": "Fish",
  "api-parameter": "Fish-free",
  "definition": "No fish or fish derivatives"
},{
  "type": "Health",
  "web-label": "FODMAP free",
  "api-parameter": "fodmap-free",
  "definition": "Does not contain FODMAP foods"
},{
  "type": "Health",
  "web-label": "Gluten",
  "api-parameter": "gluten-free",
  "definition": "No ingredients containing gluten"
},{
  "type": "Health",
  "web-label": "Keto",
  "api-parameter": "Keto-friendly",
  "definition": "Maximum 7 grams of net carbs per serving"
},{
  "type": "Health",
  "web-label": "Kidney friendly",
  "api-parameter": "kidney-friendly",
  "definition": "Per serving – phosphorus less than 250 mg AND potassium less than 500 mg AND sodium less than 500 mg"
},{
  "type": "Health",
  "web-label": "Kosher",
  "api-parameter": "kosher",
  "definition": "Contains only ingredients allowed by the kosher diet. However it does not guarantee kosher preparation of the ingredients themselves"
},{
  "type": "Health",
  "web-label": "Low potassium",
  "api-parameter": "low-potassium",
  "definition": "Less than 150mg per serving"
},{
  "type": "Health",
  "web-label": "Lupine-free",
  "api-parameter": "lupine-free",
  "definition": "Does not contain lupine or derivatives"
},{
  "type": "Health",
  "web-label": "Mustard-free",
  "api-parameter": "mustard-free",
  "definition": "Does not contain mustard or derivatives"
},{
  "type": "Health",
  "web-label": "n/a",
  "api-parameter": "low-fat-abs",
  "definition": "Less than 3g of fat per serving"
},{
  "type": "Health",
  "web-label": "No oil added",
  "api-parameter": "No-oil-added",
  "definition": "No oil added except to what is contained in the basic ingredients"
},{
  "type": "Health",
  "web-label": "No-sugar",
  "api-parameter": "low-sugar",
  "definition": "No simple sugars – glucose, dextrose, galactose, fructose, sucrose, lactose, maltose"
},{
  "type": "Health",
  "web-label": "Paleo",
  "api-parameter": "paleo",
  "definition": "Excludes what are perceived to be agricultural products; grains, legumes, dairy products, potatoes, refined salt, refined sugar, and processed oils"
},{
  "type": "Health",
  "web-label": "Peanuts",
  "api-parameter": "peanut-free",
  "definition": "No peanuts or products containing peanuts"
},{
  "type": "Health",
  "web-label": "Pescatarian",
  "api-parameter": "pescatarian",
  "definition": "Does not contain meat or meat based products, can contain dairy and fish"
},{
  "type": "Health",
  "web-label": "Pork-free",
  "api-parameter": "pork-free",
  "definition": "Does not contain pork or derivatives"
},{
  "type": "Health",
  "web-label": "Red meat-free",
  "api-parameter": "red-meat-free",
  "definition": "Does not contain beef, lamb, pork, duck, goose, game, horse, and other types of red meat or products containing red meat."
},{
  "type": "Health",
  "web-label": "Sesame-free",
  "api-parameter": "sesame-free",
  "definition": "Does not contain sesame seed or derivatives"
},{
  "type": "Health",
  "web-label": "Shellfish",
  "api-parameter": "shellfish-free",
  "definition": "No shellfish or shellfish derivatives"
},{
  "type": "Health",
  "web-label": "Soy",
  "api-parameter": "soy-free",
  "definition": "No soy or products containing soy"
},{
  "type": "Health",
  "web-label": "Sugar-conscious",
  "api-parameter": "sugar-conscious",
  "definition": "Less than 4g of sugar per serving"
},{
  "type": "Health",
  "web-label": "Tree Nuts",
  "api-parameter": "tree-nut-free",
  "definition": "No tree nuts or products containing tree nuts"
},{
  "type": "Health",
  "web-label": "Vegan",
  "api-parameter": "vegan",
  "definition": "No meat, poultry, fish, dairy, eggs or honey"
},{
  "type": "Health",
  "web-label": "Vegetarian",
  "api-parameter": "vegetarian",
  "definition": "No meat, poultry, or fish"
},{
  "type": "Health",
  "web-label": "Wheat-free",
  "api-parameter": "wheat-free",
  "definition": "No wheat, can have gluten though"
}]